﻿序号,代码,中文名称
1,100,亚洲
2,101,阿富汗
3,102,巴林
4,103,孟加拉国
5,104,不丹
6,105,文莱
7,106,缅甸
8,107,柬埔寨
9,108,塞浦路斯
10,109,朝鲜
11,110,中国香港
12,111,印度
13,112,印度尼西亚
14,113,伊朗
15,114,伊拉克
16,115,以色列
17,116,日本
18,117,约旦
19,118,科威特
20,119,老挝
21,120,黎巴嫩
22,121,中国澳门
23,122,马来西亚
24,123,马尔代夫
25,124,蒙古
26,125,尼泊尔
27,126,阿曼
28,127,巴基斯坦
29,128,巴勒斯坦
30,129,菲律宾
31,130,卡塔尔
32,131,沙特阿拉伯
33,132,新加坡
34,133,韩国
35,134,斯里兰卡
36,135,叙利亚
37,136,泰国
38,137,土耳其
39,138,阿联酋
40,139,也门共和国
41,141,越南
42,142,中国
43,143,台澎金马关税区
44,144,东帝汶
45,145,哈萨克斯坦
46,146,吉尔吉斯斯坦
47,147,塔吉克斯坦
48,148,土库曼斯坦
49,149,乌兹别克斯坦
50,199,亚洲其他国家(地区)
51,200,非洲
52,201,阿尔及利亚
53,202,安哥拉
54,203,贝宁
55,204,博茨瓦那
56,205,布隆迪
57,206,喀麦隆
58,207,加那利群岛
59,208,佛得角
60,209,中非共和国
61,210,塞卜泰
62,211,乍得
63,212,科摩罗
64,213,刚果
65,214,吉布提
66,215,埃及
67,216,赤道几内亚
68,217,埃塞俄比亚
69,218,加蓬
70,219,冈比亚
71,220,加纳
72,221,几内亚
73,222,几内亚(比绍)
74,223,科特迪瓦
75,224,肯尼亚
76,225,利比里亚
77,226,利比亚
78,227,马达加斯加
79,228,马拉维
80,229,马里
81,230,毛里塔尼亚
82,231,毛里求斯
83,232,摩洛哥
84,233,莫桑比克
85,234,纳米比亚
86,235,尼日尔
87,236,尼日利亚
88,237,留尼汪
89,238,卢旺达
90,239,圣多美和普林西比
91,240,塞内加尔
92,241,塞舌尔
93,242,塞拉利昂
94,243,索马里
95,244,南非
96,245,西撒哈拉
97,246,苏丹
98,247,坦桑尼亚
99,248,多哥
100,249,突尼斯
101,250,乌干达
102,251,布基纳法索
103,252,民主刚果
104,253,赞比亚
105,254,津巴布韦
106,255,莱索托
107,256,梅利利亚
108,257,斯威士兰
109,258,厄立特里亚
110,259,马约特岛
111,299,非洲其他国家(地区)
112,300,欧洲
113,301,比利时
114,302,丹麦
115,303,英国
116,304,德国
117,305,法国
118,306,爱尔兰
119,307,意大利
120,308,卢森堡
121,309,荷兰
122,310,希腊
123,311,葡萄牙
124,312,西班牙
125,313,阿尔巴尼亚
126,314,安道尔
127,315,奥地利
128,316,保加利亚
129,318,芬兰
130,320,直布罗陀
131,321,匈牙利
132,322,冰岛
133,323,列支敦士登
134,324,马耳他
135,325,摩纳哥
136,326,挪威
137,327,波兰
138,328,罗马尼亚
139,329,圣马力诺
140,330,瑞典
141,331,瑞士
142,334,爱沙尼亚
143,335,拉脱维亚
144,336,立陶宛
145,337,格鲁吉亚
146,338,亚美尼亚
147,339,阿塞拜疆
148,340,白俄罗斯
149,343,摩尔多瓦
150,344,俄罗斯联邦
151,347,乌克兰
152,349,塞尔维亚和黑山
153,350,斯洛文尼亚
154,351,克罗地亚
155,352,捷克共和国
156,353,斯洛伐克
157,354,马其顿
158,355,波斯尼亚-黑塞哥维那共和
159,356,梵蒂冈城国
160,399,欧洲其他国家(地区)
161,400,拉丁美洲
162,401,安提瓜和巴布达
163,402,阿根廷
164,403,阿鲁巴岛
165,404,巴哈马
166,405,巴巴多斯
167,406,伯利兹
168,408,玻利维亚
169,409,博内尔
170,410,巴西
171,411,开曼群岛
172,412,智利
173,413,哥伦比亚
174,414,多米尼亚共和国
175,415,哥斯达黎加
176,416,古巴
177,417,库腊索岛
178,418,多米尼加共和国
179,419,厄瓜多尔
180,420,法属圭亚那
181,421,格林纳达
182,422,瓜德罗普
183,423,危地马拉
184,424,圭亚那
185,425,海地
186,426,洪都拉斯
187,427,牙买加
188,428,马提尼克
189,429,墨西哥
190,430,蒙特塞拉特
191,431,尼加拉瓜
192,432,巴拿马
193,433,巴拉圭
194,434,秘鲁
195,435,波多黎各
196,436,萨巴
197,437,圣卢西亚
198,438,圣马丁岛
199,439,圣文森特和格林纳丁斯
200,440,萨尔瓦多
201,441,苏里南
202,442,特立尼达和多巴哥
203,443,特克斯和凯科斯群岛
204,444,乌拉圭
205,445,委内瑞拉
206,446,英属维尔京群岛
207,447,圣其茨-尼维斯
208,448,圣皮埃尔和密克隆
209,449,荷属安地列斯群岛
210,499,拉丁美洲其他国家(地区)
211,500,北美洲
212,501,加拿大
213,502,美国
214,503,格陵兰
215,504,百慕大
216,599,北美洲其他国家(地区)
217,600,大洋洲
218,601,澳大利亚
219,602,库克群岛
220,603,斐济
221,604,盖比群岛
222,605,马克萨斯群岛
223,606,瑙鲁
224,607,新喀里多尼亚
225,608,瓦努阿图
226,609,新西兰
227,610,诺福克岛
228,611,巴布亚新几内亚
229,612,社会群岛
230,613,所罗门群岛
231,614,汤加
232,615,土阿莫土群岛
233,616,土布艾群岛
234,617,萨摩亚
235,618,基里巴斯
236,619,图瓦卢
237,620,密克罗尼西亚联邦
238,621,马绍尔群岛
239,622,帕劳共和国
240,623,法属波利尼西亚
241,625,瓦利斯和浮图纳
242,699,大洋洲其他国家(地区)
243,701,国(地)别不详的
244,702,联合国及机构和国际组织
